
./octez-client --protocol PtQuebeckFQ2o9nDghrNQf6N9qyBM8kHf2daUzEcSPKo1C7B35T --mode mockup --no-base-dir-warnings run script michelson_test_scripts/opcodes/bls12_381_fr_z_int.tz on storage 0x8578be1766f92cd82c5e5135c374a03a8562e263ea953a3f9711b0153b7fcf2d and input 69615968247920749285624776342583898043608129789011377475114141186797415307882 --level 1 --trace-stack
storage
  0xfaa60dacea8e26112e524d379720fe4f95fbc5a26f1b1a67e229e26ddecbf221
emitted operations
  
big_map diff
  
trace
  - location: 7 (just consumed gas: 4.278)
    [ (Pair 69615968247920749285624776342583898043608129789011377475114141186797415307882
            0x8578be1766f92cd82c5e5135c374a03a8562e263ea953a3f9711b0153b7fcf2d) ]
  - location: 7 (just consumed gas: 0.010)
    [ 69615968247920749285624776342583898043608129789011377475114141186797415307882
      0x8578be1766f92cd82c5e5135c374a03a8562e263ea953a3f9711b0153b7fcf2d ]
  - location: 8 (just consumed gas: 0.299)
    [ 0xfaa60dacea8e26112e524d379720fe4f95fbc5a26f1b1a67e229e26ddecbf221 ]
  - location: 9 (just consumed gas: 0.010)
    [ {}
      0xfaa60dacea8e26112e524d379720fe4f95fbc5a26f1b1a67e229e26ddecbf221 ]
  - location: 11 (just consumed gas: 0.010)
    [ (Pair {} 0xfaa60dacea8e26112e524d379720fe4f95fbc5a26f1b1a67e229e26ddecbf221) ]

