
./octez-client --protocol PtQuebeckFQ2o9nDghrNQf6N9qyBM8kHf2daUzEcSPKo1C7B35T --mode mockup --no-base-dir-warnings run script michelson_test_scripts/opcodes/not_binary.tz on storage None and input '(Left 7)' --level 1 --trace-stack
storage
  (Some -8)
emitted operations
  
big_map diff
  
trace
  - location: 10 (just consumed gas: 6.822)
    [ (Pair (Left 7) None) ]
  - location: 10 (just consumed gas: 0.010)
    [ (Left 7) ]
  - location: 11 (just consumed gas: 0.010)
    [ 7 ]
  - location: 13 (just consumed gas: 0.025)
    [ -8 ]
  - location: 11 (just consumed gas: 0.025)
    [ -8 ]
  - location: 16 (just consumed gas: 0.010)
    [ (Some -8) ]
  - location: 17 (just consumed gas: 0.010)
    [ {}
      (Some -8) ]
  - location: 19 (just consumed gas: 0.010)
    [ (Pair {} (Some -8)) ]

