
./octez-client --protocol PtQuebeckFQ2o9nDghrNQf6N9qyBM8kHf2daUzEcSPKo1C7B35T --mode mockup --no-base-dir-warnings run script michelson_test_scripts/opcodes/xor.tz on storage None and input 'Left (Pair True True)' --level 1 --trace-stack
storage
  (Some (Left False))
emitted operations
  
big_map diff
  
trace
  - location: 16 (just consumed gas: 10.744)
    [ (Pair (Left (Pair True True)) None) ]
  - location: 16 (just consumed gas: 0.010)
    [ (Left (Pair True True)) ]
  - location: 17 (just consumed gas: 0.010)
    [ (Pair True True) ]
  - location: 19 (just consumed gas: 0.010)
    [ True
      True ]
  - location: 20 (just consumed gas: 0.015)
    [ False ]
  - location: 21 (just consumed gas: 0.010)
    [ (Left False) ]
  - location: 17 (just consumed gas: 0.025)
    [ (Left False) ]
  - location: 28 (just consumed gas: 0.010)
    [ (Some (Left False)) ]
  - location: 29 (just consumed gas: 0.010)
    [ {}
      (Some (Left False)) ]
  - location: 31 (just consumed gas: 0.010)
    [ (Pair {} (Some (Left False))) ]

