
./octez-client --protocol PtQuebeckFQ2o9nDghrNQf6N9qyBM8kHf2daUzEcSPKo1C7B35T --mode mockup --no-base-dir-warnings run script michelson_test_scripts/opcodes/get_and_update_map.tz on storage '(Pair None { Elt "1" 1 ; Elt "2" 2 })' and input '"1"' --level 1 --trace-stack
storage
  (Pair (Some 1) { Elt "2" 2 })
emitted operations
  
big_map diff
  
trace
  - location: 13 (just consumed gas: 8.239)
    [ (Pair "1" None { Elt "1" 1 ; Elt "2" 2 }) ]
  - location: 13 (just consumed gas: 0.010)
    [ "1"
      (Pair None { Elt "1" 1 ; Elt "2" 2 }) ]
  - location: 14 (just consumed gas: 0.010)
    [ (Pair None { Elt "1" 1 ; Elt "2" 2 }) ]
  - location: 16 (just consumed gas: 0.010)
    [ None
      { Elt "1" 1 ; Elt "2" 2 } ]
  - location: 14 (just consumed gas: 0.035)
    [ "1"
      None
      { Elt "1" 1 ; Elt "2" 2 } ]
  - location: 17 (just consumed gas: 0.075)
    [ (Some 1)
      { Elt "2" 2 } ]
  - location: 18 (just consumed gas: 0.010)
    [ (Pair (Some 1) { Elt "2" 2 }) ]
  - location: 19 (just consumed gas: 0.010)
    [ {}
      (Pair (Some 1) { Elt "2" 2 }) ]
  - location: 21 (just consumed gas: 0.010)
    [ (Pair {} (Some 1) { Elt "2" 2 }) ]

